{
	"version": "3.1",
	"remotes": {
		"windows-x86" : {
			"type": "zip",
			"url": "http://www.cmake.org/files/v3.3/cmake-3.3.0-rc4-win32-x86.zip"
		}
	},
	"methods": {
		"install": {
			"remotes": ["windows-x86"],
			"payloads": [
				{
					"type": "copy",
					"source_path": "${remotes.windows-x86.name}/{remotes.windows-x86.filename_no_extension}",
					"items": [
						"bin",
						"doc",
						"man",
						"share"
					],
					"destination": ""
				}
			]
		}
	},
	"default_method": "install"
}